%YAML 1.1
%TAG !u! tag:unity3d.com,2011:
--- !u!114 &11400000
MonoBehaviour:
  m_ObjectHideFlags: 8
  m_CorrespondingSourceObject: {fileID: 0}
  m_PrefabInstance: {fileID: 0}
  m_PrefabAsset: {fileID: 0}
  m_GameObject: {fileID: 0}
  m_Enabled: 1
  m_EditorHideFlags: 0
  m_Script: {fileID: 11500000, guid: 74e889193e22a9747940ed2cfe192e6e, type: 3}
  m_Name: Boot.chapter
  m_EditorClassIdentifier: 
  chapterName: 
  dataList:
  - {fileID: 11400000, guid: 13e1472af20d46d42860d5e9c6e3fb43, type: 2}
  settingList:
  - rows:
    - rowIndex: 0
      debugIndex: 0
      strings:
      - CharacterName
      - NameText
      - 
      - 
      - Pattern
      - X
      - Y
      - Z
      - Pivot
      - Scale
      - Conditional
      - FileName
      - SubFileName
      - FileType
      - Animation
      - RenderTexture
      - RenderRect
      - EyeBlink
      - LipSynch
      - Icon
      - IconSubFileName
      - IconRect
      isEmpty: 0
      isCommentOut: 0
      debugInfo: 
    - rowIndex: 1
      debugIndex: 1
      strings: []
      isEmpty: 1
      isCommentOut: 0
      debugInfo: 
    - rowIndex: 2
      debugIndex: 2
      strings:
      - kusogakiA
      - "\u30AF\u30BD\u30AC\u30AD"
      - 
      - 
      - 
      - 0
      - 0
      - 
      - 
      - 1
      - 
      - kusogaki/kusogakiA
      isEmpty: 0
      isCommentOut: 0
      debugInfo: 
    - rowIndex: 3
      debugIndex: 3
      strings: []
      isEmpty: 1
      isCommentOut: 0
      debugInfo: 
    - rowIndex: 4
      debugIndex: 4
      strings: []
      isEmpty: 1
      isCommentOut: 0
      debugInfo: 
    - rowIndex: 5
      debugIndex: 5
      strings: []
      isEmpty: 1
      isCommentOut: 0
      debugInfo: 
    - rowIndex: 6
      debugIndex: 6
      strings: []
      isEmpty: 1
      isCommentOut: 0
      debugInfo: 
    - rowIndex: 7
      debugIndex: 7
      strings:
      - kusogakiB
      - "\u30AF\u30BD\u30AC\u30ADB"
      - 
      - 
      - 
      - 0
      - 0
      - 
      - 
      - 1
      - 
      - kusogaki/kusogakiB
      isEmpty: 0
      isCommentOut: 0
      debugInfo: 
    - rowIndex: 8
      debugIndex: 8
      strings: []
      isEmpty: 1
      isCommentOut: 0
      debugInfo: 
    - rowIndex: 9
      debugIndex: 9
      strings: []
      isEmpty: 1
      isCommentOut: 0
      debugInfo: 
    - rowIndex: 10
      debugIndex: 10
      strings: []
      isEmpty: 1
      isCommentOut: 0
      debugInfo: 
    - rowIndex: 11
      debugIndex: 11
      strings:
      - "\u30AB\u30FC\u30DE\u30C6\u30B9\u30C8"
      - 
      - 
      - 
      - 
      - 0
      - 0
      - 
      - 
      - 6
      - 
      - ka-ma_test.prefab
      - 
      - Custom
      isEmpty: 0
      isCommentOut: 0
      debugInfo: 
    - rowIndex: 12
      debugIndex: 12
      strings:
      - "\u30AA\u30CD"
      - 
      - 
      - 
      - 
      - 
      - 
      - 
      - 
      - 2
      - 
      - one
      isEmpty: 0
      isCommentOut: 0
      debugInfo: 
    - rowIndex: 13
      debugIndex: 13
      strings:
      - "\u30B7\u30E7\u30BF"
      - 
      - 
      - 
      - 
      - 
      - -200
      - 
      - 
      - 2
      - 
      - syota
      isEmpty: 0
      isCommentOut: 0
      debugInfo: 
    name: Assets/UtageEiwa/utageEiwa_Kaiwa.xls:Character
    type: 1
    textLength: 274
    headerRow: 0
  - rows:
    - rowIndex: 0
      debugIndex: 0
      strings:
      - Label
      - Type
      - X
      - Y
      - Z
      - Pivot
      - Scale
      - Conditional
      - FileName
      - FileType
      - SubFileName
      - Animation
      - RenderTexture
      - RenderRect
      - Thumbnail
      - CgCategolly
      isEmpty: 0
      isCommentOut: 0
      debugInfo: 
    - rowIndex: 1
      debugIndex: 1
      strings:
      - "\u80CC\u666F\u30C8\u30A4\u30EC\u306E\u5916"
      - Bg
      - 
      - 0
      - 
      - 
      - 1.2
      - 
      - toileSoto.jpg
      isEmpty: 0
      isCommentOut: 0
      debugInfo: 
    - rowIndex: 2
      debugIndex: 2
      strings: []
      isEmpty: 1
      isCommentOut: 0
      debugInfo: 
    - rowIndex: 3
      debugIndex: 3
      strings:
      - "\u90E8\u5C4B"
      - Bg
      - 
      - 0
      - 
      - 
      - 2
      - 
      - heya1
      isEmpty: 0
      isCommentOut: 0
      debugInfo: 
    - rowIndex: 4
      debugIndex: 4
      strings: []
      isEmpty: 1
      isCommentOut: 0
      debugInfo: 
    - rowIndex: 5
      debugIndex: 5
      strings:
      - "\u6559\u5BA4"
      - Bg
      - 
      - 0
      - 
      - 
      - 2
      - 
      - gakkou
      isEmpty: 0
      isCommentOut: 0
      debugInfo: 
    - rowIndex: 6
      debugIndex: 6
      strings: []
      isEmpty: 1
      isCommentOut: 0
      debugInfo: 
    - rowIndex: 7
      debugIndex: 7
      strings: []
      isEmpty: 1
      isCommentOut: 0
      debugInfo: 
    - rowIndex: 8
      debugIndex: 8
      strings:
      - "T\u30C1\u30E5\u30FC\u30C8\u30EA\u30A2\u30EB001"
      - Bg
      - 
      - 0
      - 
      - 
      - .6
      - 
      - gamenonakaniiretemiru_008
      isEmpty: 0
      isCommentOut: 0
      debugInfo: 
    - rowIndex: 9
      debugIndex: 9
      strings:
      - "T\u30C1\u30E5\u30FC\u30C8\u30EA\u30A2\u30EB002"
      - Bg
      - 
      - 0
      - 
      - 
      - .6
      - 
      - gamenonakaniiretemiru_009
      isEmpty: 0
      isCommentOut: 0
      debugInfo: 
    - rowIndex: 10
      debugIndex: 10
      strings:
      - "T\u30C1\u30E5\u30FC\u30C8\u30EA\u30A2\u30EB003"
      - Bg
      - 
      - 0
      - 
      - 
      - .6
      - 
      - gamenonakaniiretemiru_010
      isEmpty: 0
      isCommentOut: 0
      debugInfo: 
    - rowIndex: 11
      debugIndex: 11
      strings:
      - "T\u30C1\u30E5\u30FC\u30C8\u30EA\u30A2\u30EB004"
      - Bg
      - 
      - 0
      - 
      - 
      - .6
      - 
      - gamenonakaniiretemiru_011
      isEmpty: 0
      isCommentOut: 0
      debugInfo: 
    - rowIndex: 12
      debugIndex: 12
      strings:
      - "T\u30C1\u30E5\u30FC\u30C8\u30EA\u30A2\u30EB005"
      - Bg
      - 
      - 0
      - 
      - 
      - .6
      - 
      - gamenonakaniiretemiru_012
      isEmpty: 0
      isCommentOut: 0
      debugInfo: 
    - rowIndex: 13
      debugIndex: 13
      strings:
      - "T\u30C1\u30E5\u30FC\u30C8\u30EA\u30A2\u30EB006"
      - Bg
      - 
      - 0
      - 
      - 
      - .6
      - 
      - gamenonakaniiretemiru_013
      isEmpty: 0
      isCommentOut: 0
      debugInfo: 
    - rowIndex: 14
      debugIndex: 14
      strings:
      - "T\u30C1\u30E5\u30FC\u30C8\u30EA\u30A2\u30EB007"
      - Bg
      - 
      - 0
      - 
      - 
      - .6
      - 
      - gamenonakaniiretemiru_014
      isEmpty: 0
      isCommentOut: 0
      debugInfo: 
    - rowIndex: 15
      debugIndex: 15
      strings:
      - "T\u30C1\u30E5\u30FC\u30C8\u30EA\u30A2\u30EB008"
      - Bg
      - 
      - 0
      - 
      - 
      - .6
      - 
      - gamenonakaniiretemiru_015
      isEmpty: 0
      isCommentOut: 0
      debugInfo: 
    - rowIndex: 16
      debugIndex: 16
      strings:
      - "T\u30C1\u30E5\u30FC\u30C8\u30EA\u30A2\u30EB009"
      - Bg
      - 
      - 0
      - 
      - 
      - .6
      - 
      - gamenonakaniiretemiru_016
      isEmpty: 0
      isCommentOut: 0
      debugInfo: 
    - rowIndex: 17
      debugIndex: 17
      strings:
      - "T\u30C1\u30E5\u30FC\u30C8\u30EA\u30A2\u30EB010"
      - Bg
      - 
      - 0
      - 
      - 
      - .6
      - 
      - gamenonakaniiretemiru_017
      isEmpty: 0
      isCommentOut: 0
      debugInfo: 
    - rowIndex: 18
      debugIndex: 18
      strings: []
      isEmpty: 1
      isCommentOut: 0
      debugInfo: 
    - rowIndex: 19
      debugIndex: 19
      strings: []
      isEmpty: 1
      isCommentOut: 0
      debugInfo: 
    - rowIndex: 20
      debugIndex: 20
      strings:
      - "\u771F\u3093\u4E2D\u306E\u5BB6"
      - Bg
      - 
      - 0
      - 
      - 
      - 1.2
      - 
      - mannaka_ie
      isEmpty: 0
      isCommentOut: 0
      debugInfo: 
    name: Assets/UtageEiwa/utageEiwa_Kaiwa.xls:Texture
    type: 1
    textLength: 592
    headerRow: 0
  - rows:
    - rowIndex: 0
      debugIndex: 0
      strings:
      - Label
      - FileName
      isEmpty: 0
      isCommentOut: 0
      debugInfo: 
    name: Assets/UtageEiwa/utageEiwa_Kaiwa.xls:Particle
    type: 1
    textLength: 13
    headerRow: 0
  - rows:
    - rowIndex: 0
      debugIndex: 0
      strings:
      - LayerName
      - Type
      - X
      - Y
      - Order
      - LayerMask
      - ScaleX
      - ScaleY
      - FlipX
      - FlipY
      - Width
      - Height
      - BorderLeft
      - BorderRight
      - BorderTop
      - BorderBottom
      - Align
      isEmpty: 0
      isCommentOut: 0
      debugInfo: 
    - rowIndex: 1
      debugIndex: 1
      strings:
      - "\u30AD\u30E3\u30E9\u4E2D\u592E"
      - Character
      - 0
      - 0
      - 200
      isEmpty: 0
      isCommentOut: 0
      debugInfo: 
    - rowIndex: 2
      debugIndex: 2
      strings:
      - "\u30AD\u30E3\u30E9\u5DE6"
      - Character
      - -500
      - -100
      - 190
      isEmpty: 0
      isCommentOut: 0
      debugInfo: 
    - rowIndex: 3
      debugIndex: 3
      strings:
      - "\u30AD\u30E3\u30E9\u53F3"
      - Character
      - 500
      - -100
      - 190
      isEmpty: 0
      isCommentOut: 0
      debugInfo: 
    - rowIndex: 4
      debugIndex: 4
      strings:
      - "\u80CC\u666F"
      - Character
      - 
      - 
      - 100
      isEmpty: 0
      isCommentOut: 0
      debugInfo: 
    name: Assets/UtageEiwa/utageEiwa_Kaiwa.xls:Layer
    type: 1
    textLength: 189
    headerRow: 0
  - rows:
    - rowIndex: 0
      debugIndex: 0
      strings:
      - Label
      - IntervalMin
      - IntervalMax
      - RandomDouble
      - Tag
      - Name0
      - Duration0
      - Name1
      - Duration1
      - Name2
      - Duration2
      - Name3
      - Duration3
      - Name4
      - Duration4
      isEmpty: 0
      isCommentOut: 0
      debugInfo: 
    name: Assets/UtageEiwa/utageEiwa_Kaiwa.xls:EyeBlink
    type: 1
    textLength: 112
    headerRow: 0
  - rows:
    - rowIndex: 0
      debugIndex: 0
      strings:
      - Label
      - Type
      - Interval
      - Tag
      - ScaleVoiceVolume
      - Name0
      - Duration0
      - Name1
      - Duration1
      - Name2
      - Duration2
      - Name3
      - Duration3
      - Name4
      - Duration4
      isEmpty: 0
      isCommentOut: 0
      debugInfo: 
    name: Assets/UtageEiwa/utageEiwa_Kaiwa.xls:LipSynch
    type: 1
    textLength: 106
    headerRow: 0
  - rows:
    - rowIndex: 0
      debugIndex: 0
      strings:
      - '*SampleAnimation'
      isEmpty: 0
      isCommentOut: 0
      debugInfo: 
    - rowIndex: 1
      debugIndex: 1
      strings:
      - Time
      - 0
      - .5
      - 1
      - 1.5
      - 2
      isEmpty: 0
      isCommentOut: 0
      debugInfo: 
    - rowIndex: 2
      debugIndex: 2
      strings:
      - X
      - 0
      - 
      - 0
      - 0
      - 100
      isEmpty: 0
      isCommentOut: 0
      debugInfo: 
    - rowIndex: 3
      debugIndex: 3
      strings:
      - Y
      - -50
      - 50
      - 0
      - 0
      - 0
      isEmpty: 0
      isCommentOut: 0
      debugInfo: 
    - rowIndex: 4
      debugIndex: 4
      strings:
      - Angle
      - 0
      - 
      - 0
      - 0
      - 360
      isEmpty: 0
      isCommentOut: 0
      debugInfo: 
    - rowIndex: 5
      debugIndex: 5
      strings:
      - ScaleX
      - .2
      - 1.2
      - 1
      - 1
      - 1
      isEmpty: 0
      isCommentOut: 0
      debugInfo: 
    - rowIndex: 6
      debugIndex: 6
      strings:
      - ScaleY
      - .2
      - 1.2
      - 1
      - 1
      - 1
      isEmpty: 0
      isCommentOut: 0
      debugInfo: 
    - rowIndex: 7
      debugIndex: 7
      strings:
      - Alpha
      - 0
      - 1
      - 1
      - 1
      - 1
      isEmpty: 0
      isCommentOut: 0
      debugInfo: 
    name: Assets/UtageEiwa/utageEiwa_Kaiwa.xls:Animation
    type: 1
    textLength: 93
    headerRow: 0
  - rows:
    - rowIndex: 0
      debugIndex: 0
      strings:
      - Label
      - Title
      - Type
      - FileName
      - IntroTime
      - Volume
      isEmpty: 0
      isCommentOut: 0
      debugInfo: 
    - rowIndex: 1
      debugIndex: 1
      strings:
      - "\u6C4E\u7528\u52B9\u679C\u97F31"
      - 
      - Se
      - "hiA_004\u3048\u3089\u3044\u306D\uFF01"
      isEmpty: 0
      isCommentOut: 0
      debugInfo: 
    - rowIndex: 2
      debugIndex: 2
      strings: []
      isEmpty: 1
      isCommentOut: 0
      debugInfo: 
    - rowIndex: 3
      debugIndex: 3
      strings: []
      isEmpty: 1
      isCommentOut: 0
      debugInfo: 
    - rowIndex: 4
      debugIndex: 4
      strings:
      - 
      - 
      - 
      - 
      - 
      - 
      - 
      - 
      - 
      - 
      - 
      - 
      - 
      - 
      - 
      - 
      - 
      - 
      - 
      - 
      - 
      - 
      isEmpty: 1
      isCommentOut: 0
      debugInfo: 
    name: Assets/UtageEiwa/utageEiwa_Kaiwa.xls:Sound
    type: 1
    textLength: 57
    headerRow: 0
  - rows:
    - rowIndex: 0
      debugIndex: 0
      strings:
      - Label
      - Type
      - Value
      - FileType
      isEmpty: 0
      isCommentOut: 0
      debugInfo: 
    - rowIndex: 1
      debugIndex: 1
      strings:
      - heroine_name
      - String
      - "\u30A2\u30B9\u30AB"
      isEmpty: 0
      isCommentOut: 0
      debugInfo: 
    - rowIndex: 2
      debugIndex: 2
      strings:
      - heroine_nameT
      - String
      - "Float\u7B49\u306E\u5148\u982D\u306E\u6587\u5B57\u306F\u5927\u6587\u5B57\u3067\u306A\u3044\u3068\u3044\u3051\u306A\u3044"
      isEmpty: 0
      isCommentOut: 0
      debugInfo: 
    - rowIndex: 3
      debugIndex: 3
      strings: []
      isEmpty: 1
      isCommentOut: 0
      debugInfo: 
    - rowIndex: 4
      debugIndex: 4
      strings: []
      isEmpty: 1
      isCommentOut: 0
      debugInfo: 
    - rowIndex: 5
      debugIndex: 5
      strings:
      - sennouP
      - Int
      - 0
      - System
      isEmpty: 0
      isCommentOut: 0
      debugInfo: 
    - rowIndex: 6
      debugIndex: 6
      strings: []
      isEmpty: 1
      isCommentOut: 0
      debugInfo: 
    - rowIndex: 7
      debugIndex: 7
      strings:
      - eraiP
      - Int
      - 0
      - System
      isEmpty: 0
      isCommentOut: 0
      debugInfo: 
    - rowIndex: 8
      debugIndex: 8
      strings:
      - point
      - Int
      - 0
      - System
      isEmpty: 0
      isCommentOut: 0
      debugInfo: 
    - rowIndex: 9
      debugIndex: 9
      strings:
      - year
      - Float
      - 0
      - 
      isEmpty: 0
      isCommentOut: 0
      debugInfo: 
    - rowIndex: 10
      debugIndex: 10
      strings:
      - month
      - Float
      - 0
      - 
      isEmpty: 0
      isCommentOut: 0
      debugInfo: 
    - rowIndex: 11
      debugIndex: 11
      strings:
      - day
      - Float
      - 0
      - 
      isEmpty: 0
      isCommentOut: 0
      debugInfo: 
    - rowIndex: 12
      debugIndex: 12
      strings:
      - hour
      - Float
      - 0
      - 
      isEmpty: 0
      isCommentOut: 0
      debugInfo: 
    - rowIndex: 13
      debugIndex: 13
      strings:
      - minute
      - Float
      - 0
      - 
      isEmpty: 0
      isCommentOut: 0
      debugInfo: 
    - rowIndex: 14
      debugIndex: 14
      strings:
      - second
      - Float
      - 0
      - 
      isEmpty: 0
      isCommentOut: 0
      debugInfo: 
    - rowIndex: 15
      debugIndex: 15
      strings:
      - 
      - 
      - 
      - 
      isEmpty: 1
      isCommentOut: 0
      debugInfo: 
    - rowIndex: 16
      debugIndex: 16
      strings:
      - 
      - 
      - 
      - 
      isEmpty: 1
      isCommentOut: 0
      debugInfo: 
    name: Assets/UtageEiwa/utageEiwa_Kaiwa.xls:Param
    type: 1
    textLength: 197
    headerRow: 0
  - rows:
    - rowIndex: 0
      debugIndex: 0
      strings:
      - Name
      isEmpty: 0
      isCommentOut: 0
      debugInfo: 
    - rowIndex: 1
      debugIndex: 1
      strings:
      - Type
      isEmpty: 0
      isCommentOut: 0
      debugInfo: 
    - rowIndex: 2
      debugIndex: 2
      strings:
      - FileType
      isEmpty: 0
      isCommentOut: 0
      debugInfo: 
    name: Assets/UtageEiwa/utageEiwa_Kaiwa.xls:ParamTbl{}
    type: 1
    textLength: 16
    headerRow: 0
  - rows:
    - rowIndex: 0
      debugIndex: 0
      strings:
      - ScenarioLabel
      - Title
      - Thumbnail
      isEmpty: 0
      isCommentOut: 0
      debugInfo: 
    - rowIndex: 1
      debugIndex: 1
      strings:
      - "*\u30B9\u30BF\u30FC\u30C8\u30DC\u30BF\u30F3\u3092\u8A89\u3081\u305F\u5F8C"
      - "\u65E5\u8AB2\u306E\u30BB\u30C3\u30AF\u30B9"
      - one
      isEmpty: 0
      isCommentOut: 0
      debugInfo: 
    name: Assets/UtageEiwa/utageEiwa_Kaiwa.xls:SceneGallery
    type: 1
    textLength: 50
    headerRow: 0
  - rows:
    - rowIndex: 0
      debugIndex: 0
      strings:
      - Key
      - Japanese
      - English
      isEmpty: 0
      isCommentOut: 0
      debugInfo: 
    - rowIndex: 1
      debugIndex: 1
      strings:
      - "//UI\u7CFB"
      isEmpty: 0
      isCommentOut: 1
      debugInfo: 
    - rowIndex: 2
      debugIndex: 2
      strings:
      - Yes
      - "\u306F\u3044"
      - Yes
      isEmpty: 0
      isCommentOut: 0
      debugInfo: 
    - rowIndex: 3
      debugIndex: 3
      strings:
      - No
      - "\u3044\u3044\u3048"
      - No
      isEmpty: 0
      isCommentOut: 0
      debugInfo: 
    - rowIndex: 4
      debugIndex: 4
      strings:
      - Ok
      - OK
      - OK
      isEmpty: 0
      isCommentOut: 0
      debugInfo: 
    - rowIndex: 5
      debugIndex: 5
      strings:
      - Cancel
      - "\u30AD\u30E3\u30F3\u30BB\u30EB"
      - Cancel
      isEmpty: 0
      isCommentOut: 0
      debugInfo: 
    - rowIndex: 6
      debugIndex: 6
      strings:
      - Back
      - "\u3082\u3069\u308B"
      - Back
      isEmpty: 0
      isCommentOut: 0
      debugInfo: 
    - rowIndex: 7
      debugIndex: 7
      strings:
      - Clear
      - "\u30AF\u30EA\u30A2"
      - Clear
      isEmpty: 0
      isCommentOut: 0
      debugInfo: 
    - rowIndex: 8
      debugIndex: 8
      strings:
      - Retry
      - "\u30EA\u30C8\u30E9\u30A4"
      - Retry
      isEmpty: 0
      isCommentOut: 0
      debugInfo: 
    - rowIndex: 9
      debugIndex: 9
      strings:
      - History
      - "\u5C65\u6B74"
      - History
      isEmpty: 0
      isCommentOut: 0
      debugInfo: 
    - rowIndex: 10
      debugIndex: 10
      strings:
      - Save
      - "\u30BB\u30FC\u30D6"
      - Save
      isEmpty: 0
      isCommentOut: 0
      debugInfo: 
    - rowIndex: 11
      debugIndex: 11
      strings:
      - Load
      - "\u30ED\u30FC\u30C9"
      - Load
      isEmpty: 0
      isCommentOut: 0
      debugInfo: 
    - rowIndex: 12
      debugIndex: 12
      strings:
      - On
      - "\u30AA\u30F3"
      - On
      isEmpty: 0
      isCommentOut: 0
      debugInfo: 
    - rowIndex: 13
      debugIndex: 13
      strings:
      - Off
      - "\u30AA\u30D5"
      - Off
      isEmpty: 0
      isCommentOut: 0
      debugInfo: 
    - rowIndex: 14
      debugIndex: 14
      strings:
      - None
      - "\u306A\u3057"
      - None
      isEmpty: 0
      isCommentOut: 0
      debugInfo: 
    - rowIndex: 15
      debugIndex: 15
      strings:
      - Skip
      - "\u30B9\u30AD\u30C3\u30D7"
      - Skip
      isEmpty: 0
      isCommentOut: 0
      debugInfo: 
    - rowIndex: 16
      debugIndex: 16
      strings:
      - Sound
      - "\u30B5\u30A6\u30F3\u30C9"
      - Sound
      isEmpty: 0
      isCommentOut: 0
      debugInfo: 
    - rowIndex: 17
      debugIndex: 17
      strings:
      - Review
      - "\u30EC\u30D3\u30E5\u30FC"
      - Review
      isEmpty: 0
      isCommentOut: 0
      debugInfo: 
    - rowIndex: 18
      debugIndex: 18
      strings:
      - Restore
      - "\u30EA\u30B9\u30C8\u30A2"
      - Restore
      isEmpty: 0
      isCommentOut: 0
      debugInfo: 
    - rowIndex: 19
      debugIndex: 19
      strings:
      - QuitGame
      - "\u30B2\u30FC\u30E0\u3092\u7D42\u4E86\u3057\u307E\u3059\u304B\uFF1F"
      - Quit Game?
      isEmpty: 0
      isCommentOut: 0
      debugInfo: 
    - rowIndex: 20
      debugIndex: 20
      strings:
      - DebugInfo
      - "\u25CF\u30C7\u30D0\u30C3\u30B0\u60C5\u5831"
      - Debug Info
      isEmpty: 0
      isCommentOut: 0
      debugInfo: 
    - rowIndex: 21
      debugIndex: 21
      strings:
      - DebugLog
      - "\u25CF\u30C7\u30D0\u30C3\u30B0\u30ED\u30B0"
      - Debug Log
      isEmpty: 0
      isCommentOut: 0
      debugInfo: 
    - rowIndex: 22
      debugIndex: 22
      strings:
      - DebugMenu
      - "\u25CF\u30C7\u30D0\u30C3\u30B0\u30E1\u30CB\u30E5\u30FC"
      - Debug Memu
      isEmpty: 0
      isCommentOut: 0
      debugInfo: 
    - rowIndex: 23
      debugIndex: 23
      strings:
      - DeleteSaveAndQuit
      - "\u30BB\u30FC\u30D6\u6D88\u53BB\uFF06\u7D42\u4E86"
      - Delete Save
      isEmpty: 0
      isCommentOut: 0
      debugInfo: 
    - rowIndex: 24
      debugIndex: 24
      strings:
      - DeleteCacheFile
      - "\uFF77\uFF6C\uFF6F\uFF7C\uFF6D\uFF8C\uFF67\uFF72\uFF99\u524A\u9664"
      - Delete Cache
      isEmpty: 0
      isCommentOut: 0
      debugInfo: 
    - rowIndex: 25
      debugIndex: 25
      strings:
      - Language
      - "\u8A00\u8A9E"
      - Language
      isEmpty: 0
      isCommentOut: 0
      debugInfo: 
    - rowIndex: 26
      debugIndex: 26
      strings:
      - DeleteAllSaveDataFilesTitle
      - "\u300C\u5BB4\u300D\u306E\u30BB\u30FC\u30D6\u30C7\u30FC\u30BF\u3092\u6D88\u53BB"
      - Delete save data of "Utage"
      isEmpty: 0
      isCommentOut: 0
      debugInfo: 
    - rowIndex: 27
      debugIndex: 27
      strings:
      - DeleteAllSaveDataFilesMessage
      - "\u300C\u5BB4\u300D\u306E\u30BB\u30FC\u30D6\u30C7\u30FC\u30BF\u3092\u5168\u3066\u6D88\u53BB\u3057\u307E\u3059\u304B\uFF1F"
      - Are you sure you want to clear all saved data of "Utage"?
      isEmpty: 0
      isCommentOut: 0
      debugInfo: 
    - rowIndex: 28
      debugIndex: 28
      strings:
      - DeleteAllCacheFilesTitle
      - "\u300C\u5BB4\u300D\u306E\u30AD\u30E3\u30C3\u30B7\u30E5\u30D5\u30A1\u30A4\u30EB\u3092\u6D88\u53BB"
      - Delete cache files of "Utage"
      isEmpty: 0
      isCommentOut: 0
      debugInfo: 
    - rowIndex: 29
      debugIndex: 29
      strings:
      - DeleteAllCacheFilesMessage
      - "\u300C\u5BB4\u300D\u306E\u30AD\u30E3\u30C3\u30B7\u30E5\u30D5\u30A1\u30A4\u30EB\u3092\u5168\u3066\u6D88\u53BB\u3057\u307E\u3059\u304B\uFF1F"
      - Are you sure you want to clear all cache files of "Utage"?
      isEmpty: 0
      isCommentOut: 0
      debugInfo: 
    - rowIndex: 30
      debugIndex: 30
      strings:
      - DeleteAllOutputFilesTitle
      - "\u300C\u5BB4\u300D\u306E\u51FA\u529B\u30D5\u30A1\u30A4\u30EB\u3092\u6D88\u53BB"
      - Delete output files of "Utage"
      isEmpty: 0
      isCommentOut: 0
      debugInfo: 
    - rowIndex: 31
      debugIndex: 31
      strings:
      - DeleteAllOutputFilesMessage
      - "\u300C\u5BB4\u300D\u306E\u51FA\u529B\u30D5\u30A1\u30A4\u30EB\uFF08\u30BB\u30FC\u30D6\u30C7\u30FC\u30BF\u3068\u30AD\u30E3\u30C3\u30B7\u30E5\u30D5\u30A1\u30A4\u30EB\uFF09\u3092\u5168\u3066\u6D88\u53BB\u3057\u307E\u3059\u304B\uFF1F"
      - Are you sure you want to clear all (cache file and save data) output file
        of "Utage"?
      isEmpty: 0
      isCommentOut: 0
      debugInfo: 
    - rowIndex: 32
      debugIndex: 32
      strings:
      - Downloading
      - "\u30C0\u30A6\u30F3\u30ED\u30FC\u30C9\u4E2D\u3067\u3059..."
      - Downloading...
      isEmpty: 0
      isCommentOut: 0
      debugInfo: 
    - rowIndex: 33
      debugIndex: 33
      strings:
      - DownloadCount
      - '{0}/{1}'
      - '{0}/{1}'
      isEmpty: 0
      isCommentOut: 0
      debugInfo: 
    - rowIndex: 34
      debugIndex: 34
      strings:
      - DownloadFinished
      - "\u30C0\u30A6\u30F3\u30ED\u30FC\u30C9\u5B8C\u4E86\uFF01"
      - Download Finished!
      isEmpty: 0
      isCommentOut: 0
      debugInfo: 
    - rowIndex: 35
      debugIndex: 35
      strings:
      - WarningNotOnline
      - "\u30CD\u30C3\u30C8\u30EF\u30FC\u30AF\u306B\u3064\u306A\u304C\u3063\u3066\u3044\u307E\u305B\u3093"
      - Warning! Not Online
      isEmpty: 0
      isCommentOut: 0
      debugInfo: 
    - rowIndex: 36
      debugIndex: 36
      strings:
      - WarningNotWifi
      - "\u30B5\u30A4\u30BA\u306E\u5927\u304D\u3044\u30C7\u30FC\u30BF\u304C\u30C0\u30A6\u30F3\u30ED\u30FC\u30C9\u3055\u308C\u307E\u3059\u3002Wifi\u63A5\u7D9A\u3067\u306F\u306A\u3044\u3067\u3059\u304C\u3088\u308D\u3057\u3044\u3067\u3059\u304B\u3002"
      - Warning! Not Wifi
      isEmpty: 0
      isCommentOut: 0
      debugInfo: 
    - rowIndex: 37
      debugIndex: 37
      strings:
      - ChangeCurrentProject
      - "\u73FE\u5728\u306E\u30B7\u30CA\u30EA\u30AA\u30D7\u30ED\u30B8\u30A7\u30AF\u30C8\u30D5\u30A1\u30A4\u30EB\u3092\u5909\u66F4\u3057\u307E\u3059"
      - Change Current Scenario Data Project
      isEmpty: 0
      isCommentOut: 0
      debugInfo: 
    - rowIndex: 38
      debugIndex: 38
      strings:
      - VersionUpScene
      - "\u5BB4\u306E\u30B7\u30FC\u30F3\u3092\u30D0\u30FC\u30B8\u30E7\u30F3\u30A2\u30C3\u30D7\u3059\u308B\u5FC5\u8981\u304C\u3042\u308A\u307E\u3059\u3002\u3088\u308D\u3057\u3044\u3067\u3059\u304B"
      - "Current UTAGE scene should be upgraded. Is it OK\uFF1F"
      isEmpty: 0
      isCommentOut: 0
      debugInfo: 
    - rowIndex: 39
      debugIndex: 39
      strings:
      - VersionUpScenario
      - "\u5BB4\u306E\u30B7\u30CA\u30EA\u30AA\u3092\u518D\u30A4\u30F3\u30DD\u30FC\u30C8\u3057\u3066\u30D0\u30FC\u30B8\u30E7\u30F3\u30A2\u30C3\u30D7\u3059\u308B\u5FC5\u8981\u304C\u3042\u308A\u307E\u3059\u3002\u3088\u308D\u3057\u3044\u3067\u3059\u304B"
      - "Current UTAGE Scenario should be upgraded. Is it OK\uFF1F"
      isEmpty: 0
      isCommentOut: 0
      debugInfo: 
    - rowIndex: 40
      debugIndex: 40
      strings:
      - Redownload
      - "\u518D\uFF80\uFF9E\uFF73\uFF9D\uFF9B\uFF70\uFF84\uFF9E"
      - Redownload
      isEmpty: 0
      isCommentOut: 0
      debugInfo: 
    - rowIndex: 41
      debugIndex: 41
      strings: []
      isEmpty: 1
      isCommentOut: 0
      debugInfo: 
    - rowIndex: 42
      debugIndex: 42
      strings:
      - StartGame
      - "\u306F\u3058\u3081"
      - Start
      isEmpty: 0
      isCommentOut: 0
      debugInfo: 
    - rowIndex: 43
      debugIndex: 43
      strings:
      - Load
      - "\u30ED\u30FC\u30C9"
      - Load
      isEmpty: 0
      isCommentOut: 0
      debugInfo: 
    - rowIndex: 44
      debugIndex: 44
      strings:
      - Config
      - Config
      - Config
      isEmpty: 0
      isCommentOut: 0
      debugInfo: 
    - rowIndex: 45
      debugIndex: 45
      strings:
      - Back
      - "\u623B\u308B"
      - Back
      isEmpty: 0
      isCommentOut: 0
      debugInfo: 
    - rowIndex: 46
      debugIndex: 46
      strings:
      - Title
      - "\u30BF\u30A4\u30C8\u30EB"
      - Title
      isEmpty: 0
      isCommentOut: 0
      debugInfo: 
    - rowIndex: 47
      debugIndex: 47
      strings:
      - ResetDefault
      - "\uFF83\uFF9E\uFF8C\uFF6B\uFF99\uFF84\\n\u306B\u623B\u3059"
      - Reset\nDefault
      isEmpty: 0
      isCommentOut: 0
      debugInfo: 
    - rowIndex: 48
      debugIndex: 48
      strings:
      - MessageSpeed
      - "\u30E1\u30C3\u30BB\u30FC\u30B8\u901F\u5EA6"
      - Message speed
      isEmpty: 0
      isCommentOut: 0
      debugInfo: 
    - rowIndex: 49
      debugIndex: 49
      strings:
      - AutoMessageSpeed
      - "\u81EA\u52D5\u30E1\u30C3\u30BB\u30FC\u30B8\u901F\u5EA6"
      - Auto message speed
      isEmpty: 0
      isCommentOut: 0
      debugInfo: 
    - rowIndex: 50
      debugIndex: 50
      strings:
      - WindowTransparent
      - "\u30A6\u30A4\u30F3\u30C9\u30A6\u306E\u900F\u660E\u5EA6"
      - Window transparent
      isEmpty: 0
      isCommentOut: 0
      debugInfo: 
    - rowIndex: 51
      debugIndex: 51
      strings:
      - SkipUnread
      - "\u672A\u8AAD\u3067\u3082\u30B9\u30AD\u30C3\u30D7\u3059\u308B"
      - Skip unread
      isEmpty: 0
      isCommentOut: 0
      debugInfo: 
    - rowIndex: 52
      debugIndex: 52
      strings:
      - SkipReleasedBySelection
      - "\u9078\u629E\u80A2\u3067\u30B9\u30AD\u30C3\u30D7\u89E3\u9664"
      - Skip released by selection
      isEmpty: 0
      isCommentOut: 0
      debugInfo: 
    - rowIndex: 53
      debugIndex: 53
      strings:
      - SendMesssageByMouseWheel
      - "\u30DE\u30A6\u30B9\u30DB\u30A4\u30FC\u30EB\u3067\\n\u6587\u5B57\u9001\u308A"
      - Send messsage\nby mouse wheel
      isEmpty: 0
      isCommentOut: 0
      debugInfo: 
    - rowIndex: 54
      debugIndex: 54
      strings:
      - FullScreen
      - "\u30D5\u30EB\u30B9\u30AF\u30EA\u30FC\u30F3\u8868\u793A"
      - Full screen
      isEmpty: 0
      isCommentOut: 0
      debugInfo: 
    - rowIndex: 55
      debugIndex: 55
      strings:
      - SoundVolume
      - "\u97F3\u91CF"
      - Sound volume
      isEmpty: 0
      isCommentOut: 0
      debugInfo: 
    - rowIndex: 56
      debugIndex: 56
      strings:
      - All
      - "\u5168\u4F53"
      - All
      isEmpty: 0
      isCommentOut: 0
      debugInfo: 
    - rowIndex: 57
      debugIndex: 57
      strings:
      - Bgm
      - BGM
      - BGM
      isEmpty: 0
      isCommentOut: 0
      debugInfo: 
    - rowIndex: 58
      debugIndex: 58
      strings:
      - Se
      - SE
      - SE
      isEmpty: 0
      isCommentOut: 0
      debugInfo: 
    - rowIndex: 59
      debugIndex: 59
      strings:
      - Ambience
      - "\u74B0\u5883\u97F3"
      - Ambience
      isEmpty: 0
      isCommentOut: 0
      debugInfo: 
    - rowIndex: 60
      debugIndex: 60
      strings:
      - Voice
      - "\u30DC\u30A4\u30B9"
      - Voice
      isEmpty: 0
      isCommentOut: 0
      debugInfo: 
    - rowIndex: 61
      debugIndex: 61
      strings:
      - ContinueUntilNext
      - "\u6B21\u306E\u97F3\u58F0\u307E\u3067\u518D\u751F\u3092\u7D9A\u3051\u308B"
      - Continue until next
      isEmpty: 0
      isCommentOut: 0
      debugInfo: 
    - rowIndex: 62
      debugIndex: 62
      strings:
      - StopOnClick
      - "\u30AF\u30EA\u30C3\u30AF\u3067\u505C\u6B62"
      - StopOnClick
      isEmpty: 0
      isCommentOut: 0
      debugInfo: 
    - rowIndex: 63
      debugIndex: 63
      strings:
      - CgGallery
      - "CG\u56DE\u60F3"
      - Cg Gallery
      isEmpty: 0
      isCommentOut: 0
      debugInfo: 
    - rowIndex: 64
      debugIndex: 64
      strings:
      - SceneGallery
      - "\u30B7\u30FC\u30F3\u56DE\u60F3"
      - Scene Gallery
      isEmpty: 0
      isCommentOut: 0
      debugInfo: 
    - rowIndex: 65
      debugIndex: 65
      strings:
      - SoundRoom
      - "\u30B5\u30A6\u30F3\u30C9\u30EB\u30FC\u30E0"
      - Sound Room
      isEmpty: 0
      isCommentOut: 0
      debugInfo: 
    - rowIndex: 66
      debugIndex: 66
      strings:
      - Gallery
      - "\u30AE\u30E3\u30E9\u30EA\u30FC"
      - Gallery
      isEmpty: 0
      isCommentOut: 0
      debugInfo: 
    name: Assets/UtageEiwa/utageEiwa_Kaiwa.xls:Localize
    type: 1
    textLength: 2198
    headerRow: 0
