%YAML 1.1
%TAG !u! tag:unity3d.com,2011:
--- !u!114 &11400000
MonoBehaviour:
  m_ObjectHideFlags: 0
  m_CorrespondingSourceObject: {fileID: 0}
  m_PrefabInstance: {fileID: 0}
  m_PrefabAsset: {fileID: 0}
  m_GameObject: {fileID: 0}
  m_Enabled: 1
  m_EditorHideFlags: 0
  m_Script: {fileID: 11500000, guid: 2f183272568e6f94382e3b59c0de76cd, type: 3}
  m_Name: UtageEiwa.project
  m_EditorClassIdentifier: 
  excelList: []
  chapterDataList:
  - chapterName: Boot
    excelList:
    - {fileID: 102900000, guid: ce4ccc4d55d58694f823842f5863f176, type: 3}
    excelDir: {fileID: 0}
  checkWaitType: 0
  checkWhiteSpaceEndOfCell: 1
  checkTextCount: 1
  scenarios: {fileID: 11400000, guid: 242162e4e2c535c40a9c3149a38e00f5, type: 2}
  autoImportType: 0
  convertPath: 
  convertVersion: 0
  isAutoUpdateVersionAfterConvert: 0
  isAutoConvertOnImport: 0
  customInportSpriteFolders:
  - {fileID: 102900000, guid: 7cf709e66986c1342aa2b228f0a2cc25, type: 3}
  - {fileID: 102900000, guid: 86f5b24eb6252b547ba8619ea1802756, type: 3}
  - {fileID: 102900000, guid: cafda623baf56fa40ae5034a1ca541df, type: 3}
  - {fileID: 102900000, guid: 2cc61e280f554224a99a362d7db3fe69, type: 3}
  - {fileID: 102900000, guid: d66dd3a9846bb9941a58228816069ae3, type: 3}
  customInportAudioFolders:
  - {fileID: 102900000, guid: 0c5455bff15d8a4428d02a1ac02f451f, type: 3}
  - {fileID: 102900000, guid: 1fdd696cdea682b40ab1dc3245cd744e, type: 3}
  - {fileID: 102900000, guid: 3e2620d152997c24ca278ee4d54fbb7c, type: 3}
  - {fileID: 102900000, guid: 848c95a346ee82248803e9621577eb3f, type: 3}
  customInportMovieFolders: []
  quickImport: 0
  parseFormula: 0
  parseNumreic: 0
